com\callcenter\models\EmployeePool.class
com\callcenter\models\Call.class
com\callcenter\CallCenter.class
com\callcenter\models\Operator.class
com\callcenter\models\Employee$CallProcess.class
com\callcenter\CallHandler.class
com\callcenter\Dispatcher.class
com\callcenter\models\Employee.class
com\callcenter\models\Supervisor.class
com\callcenter\models\Director.class
