D:\dev\spaceWorkspace\CallCenter\src\main\java\com\callcenter\CallHandler.java
D:\dev\spaceWorkspace\CallCenter\src\main\java\com\callcenter\models\Operator.java
D:\dev\spaceWorkspace\CallCenter\src\main\java\com\callcenter\models\Supervisor.java
D:\dev\spaceWorkspace\CallCenter\src\main\java\com\callcenter\models\Call.java
D:\dev\spaceWorkspace\CallCenter\src\main\java\com\callcenter\models\Employee.java
D:\dev\spaceWorkspace\CallCenter\src\main\java\com\callcenter\models\EmployeePool.java
D:\dev\spaceWorkspace\CallCenter\src\main\java\com\callcenter\Dispatcher.java
D:\dev\spaceWorkspace\CallCenter\src\main\java\com\callcenter\models\Director.java
D:\dev\spaceWorkspace\CallCenter\src\main\java\com\callcenter\CallCenter.java
